{
   "TableName":"schedule",
   "Item":{
  "schedule_id": {
    "S":"$context.requestId"
  },
  "day_name": {
    "S": "$input.path('$.day_name')"
  },
  "member": {
    "S": "$input.path('$.member')"
  },
  "time": {
    "S": "$input.path('$.time')"
  },
  "username": {
    "S": "$input.path('$.username')"
  },
  "venue_id": {
    "S": "$input.path('$.venue_id')"
  },
  "venue_name": {
    "S": "$input.path('$.venue_name')"
  }
}
}